242037 553770 470
745816 411312 509
290014 849529 525
751318 727788 424
149089 969264 525
750623 52886 509
975162 121464 525
453733 695448 509
562664 246234 470
78585 778061 509
547473 601303 434
299410 21007 443
279889 538516 470
619877 603188 447
247377 862793 525
797377 557632 509
863319 48054 525
414756 578735 470
731063 798324 468
344706 859885 525
576671 395290 470
539387 92427 470
102746 341278 443
13197 559220 470
996442 53163 525
868647 967606 507
560457 997032 525
675049 646880 442
460914 108571 449
158807 421128 449
279959 782031 509
437564 985650 525
691974 185102 509
439468 743311 509
709335 38060 509
311900 232027 407
608756 88920 470
211945 782729 509
107585 490613 449
549061 526502 452
927925 393735 525
879035 727330 525
856729 855877 375
904818 739064 525
365502 347445 410
201089 998678 525
640228 289848 509
601281 287727 470
378478 187260 443
999149 569235 525
328686 507435 449
696274 949631 525
188643 124752 383
677954 869971 525
837541 505643 509
121819 685763 509
434371 923794 525
234246 332293 407
884079 819001 525
231343 817578 509
638860 434225 509
536624 451068 470
786321 873937 525
977015 935318 507
745175 777303 468
704103 862293 525
88425 335835 443
212800 280812 443
44944 165789 383
850027 626033 525
862701 86116 525
754213 584653 509
65903 657742 509
314718 338450 384
589822 395796 470
706161 853009 525
881254 396809 525
745930 376470 509
476940 794888 509
485296 901098 525
595060 708226 509
533347 611837 452
461889 17132 449
150028 61528 375
622545 975619 525
865880 945185 507
289939 418239 449
532676 303292 470
113485 850560 525
883568 235777 525
789292 479182 509
896697 72536 525
151360 636088 509
701555 382701 509
891990 183127 525
663525 222137 509
210556 993399 525
656993 446801 509
989444 180958 525
722514 877139 525
55117 862372 525
499349 553827 470
777313 315071 509
353748 286409 441
947313 866493 507
324461 420976 449
841696 230026 525
692965 651579 442
674214 753177 504
716993 996749 525
446335 590216 470
340262 367013 441
223507 495789 449
987145 619180 525
887335 424060 525
502810 298105 449
851344 805620 525
561766 819995 509
113029 154915 375
156766 170145 370
539660 877950 525
117012 549595 470
175583 477179 449
592173 244115 470
917799 109775 525
798610 152290 509
802542 330417 509
779969 704916 468
131572 900047 525
270082 87946 443
737794 366299 509
479923 855120 525
119946 772965 509
760568 986258 525
156308 130550 383
451265 383931 449
777634 700751 504
817979 708221 468
225650 917910 525
78004 411117 449
938597 226256 525
360377 85613 443
520550 389031 470
792962 755658 468
656955 871581 525
256566 587960 470
369650 609949 470
989332 966522 458
487675 274379 449
270661 798686 509
50926 895676 525
560053 471390 470
788007 403744 509
109217 348787 443
799821 26666 509
999641 241708 525
261332 597704 470
686773 341438 509
225845 395196 443
196537 816258 509
305941 726980 509
969371 641340 525
711389 244453 509
981031 285891 525
900268 181252 525
50192 707400 509
521559 849829 525
191996 414520 449
7868 777227 509
13699 620475 470
525575 800297 509
257005 713585 509
40977 210414 383
37587 99310 351
255727 840029 525
180215 607974 470
128159 963778 525
222222 466744 449
920090 346547 525
671026 132153 509
652691 475580 509
607336 913266 525
699633 529040 509
513993 157757 470
55326 114537 354
408003 721646 509
13554 359353 443
873721 909700 445
625248 719052 509
567271 820244 509
150167 634258 509
789513 668023 504
750130 681752 504
592492 642676 509
575318 555899 421
535670 907608 525
749540 823403 468
119408 466206 449
684817 96247 509
606634 395683 470
398086 400171 374
137604 334969 443
307990 437782 449
591333 927383 525
261391 752983 509
34572 54796 340
834844 155721 509
601792 370386 470
722847 674028 504
396385 839470 525
161616 42286 383
130593 333408 443
94394 628953 509
279917 266301 407
148115 122201 375
443217 484535 444
135773 879092 525
965781 71611 525
703530 498468 509
983734 107745 525
861423 382243 525
806397 927580 525
398599 244442 441
771456 237485 509
197308 246704 443
784979 207395 509
664135 547096 509
902219 486976 525
516808 838945 525
791728 927314 525
27518 875825 525
305233 211299 443
