204698 439726 449
482032 35851 449
132793 821094 509
875979 195543 525
213360 876739 525
950618 845897 507
757400 273696 509
236391 561696 470
622386 830026 509
665556 967856 525
495420 395640 449
189035 314475 443
154142 51572 375
323237 736943 509
582411 170966 470
261666 558662 470
67229 659157 509
852209 563983 525
801101 127927 509
462949 900705 525
759865 903632 525
823966 463273 509
812058 77463 509
981990 550060 525
669070 952475 525
171750 873997 525
774955 769981 393
778498 264158 509
464965 524601 470
901960 672477 525
260370 989807 525
7681 491734 449
565069 25891 470
633521 28087 509
631821 649619 416
156538 168584 370
111223 167058 383
209910 844385 525
829070 415641 509
190935 468297 449
620385 458842 470
209612 792612 509
389818 568890 470
784364 308692 509
431854 822421 509
581622 806031 509
967620 244958 525
125397 299983 443
958117 634185 525
612487 407543 470
490420 709444 509
175685 766280 509
401354 40963 443
491812 137059 449
700588 944341 525
430621 754757 509
302668 482888 449
541851 595321 452
204666 129786 383
112877 46788 354
114101 319134 443
52880 59735 322
549688 239391 470
688934 557516 509
935807 294018 525
225782 436623 449
874612 825830 525
642940 362497 509
605409 704543 509
13431 615035 470
218102 901008 525
576519 942588 525
965286 992361 458
564935 711005 509
357650 713678 509
602592 688813 509
803705 571725 509
910890 482998 525
457922 509651 444
191109 919081 525
10507 586801 470
751614 526457 509
19444 666831 509
164537 501607 449
909228 299440 525
521087 402202 470
10063 487794 449
124590 458752 449
104338 457337 449
542195 235531 470
89190 528492 470
144192 188174 383
672270 801337 504
788112 380728 509
910670 624265 525
703336 582154 509
10789 534997 470
407857 460052 449
185582 832476 509
834991 649879 504
27950 822676 509
909682 428438 525
64471 7509 340
813847 424749 509
758498 83467 509
480446 868354 525
789371 461670 509
642540 131312 509
921673 850423 476
608029 312051 470
313411 141876 443
561330 472134 470
978884 843656 507
521125 483887 470
540009 972003 525
643302 777167 504
488248 783597 509
252202 258496 363
97501 119370 354
459884 362604 449
538814 241372 470
450683 109818 449
136342 913455 525
225036 51675 386
539058 481673 470
640034 490979 509
997192 278092 525
622716 666966 509
794763 805746 468
627063 970906 525
575487 340941 470
148324 626365 509
601739 89724 470
771080 650448 504
668578 211732 509
678185 499386 509
961903 332891 525
759513 362085 509
575711 675668 509
501524 713435 509
901457 799717 525
971897 946702 458
744004 733032 424
392972 318294 441
97642 729145 509
156216 147643 383
352056 491187 449
410815 279431 449
901004 264043 525
967578 834946 525
469381 218054 449
801347 8162 509
414346 29451 449
579216 242725 470
744014 37224 509
62812 341437 443
413267 898100 525
143414 429521 449
298915 359284 441
743856 518271 509
40687 932545 525
805733 491463 509
221815 355363 443
984329 674500 525
643845 67914 509
127604 983481 525
911833 776961 525
751002 495047 509
522362 412511 470
156888 985487 525
381938 287554 441
553498 339581 470
709363 443288 509
141180 977012 525
966179 531243 525
423336 882005 525
979060 85400 525
536691 195505 470
219952 830266 509
87166 280597 443
820168 153635 509
846731 317520 525
941722 963973 414
715398 225150 509
311914 933564 525
410485 650187 509
99458 50811 351
85813 297002 443
498593 104894 449
278868 615761 470
541592 107183 470
415305 512103 470
987481 553012 525
486981 417192 444
894059 279132 525
769177 710056 468
460193 192619 449
296507 774784 509
711449 144354 509
507294 50328 449
